{
	"THULE": {
		"engineColor":[158,63,255,200],
		"contrailParticleSizeMult":4,
		"contrailParticleDuration":0.5,
		"contrailMaxSpeedMult":0.1f,
		"contrailAngularVelocityMult":0f,
		"contrailColor":[153,95,158,150],
		"type":"SMOKE" # GLOW or SMOKE
	},
	"THULEMETEOR": {
		"engineColor":[158,63,255,200],
		"contrailParticleSizeMult":6,
		"contrailParticleDuration":0.9,
		"contrailMaxSpeedMult":0.5f,
		"contrailAngularVelocityMult":0f,
		"contrailColor":[153,95,158,150],
		"type":"SMOKE" # GLOW or SMOKE
	},
	"THULELIGHT": {
		"engineColor":[158,63,255,200],
		"contrailParticleSizeMult":0,
		"contrailParticleDuration":0,
		"contrailMaxSpeedMult":0f,
		"contrailAngularVelocityMult":0f,
		"contrailColor":[153,95,158,150],
		"type":"GLOW" # GLOW or SMOKE
	},
}