id,variant,tags,tier,rarity,fleet pts,op cost,formation,range,attackRunRange,num,role,role desc,refit,base value,Column,Column [1],Column [2],Column [3],Column [4],Column [5],Column [6],Column [7],Column [8],Column [9],Column [10],Column [11],number
thule_gunnr_wing,thule_gunnr_Wing,"fighter4, fighter, high",1,,7,12,CLAW,4000,400,3,FIGHTER,Fighter,10,12000,,,,,,,,,,,,,
thule_komet_wing,thule_komet_Wing,bomber,1,,5,12,CLAW,4000,2000,3,BOMBER,Bomber,15,15000,,,,,,,,,,,,,
thule_einherjer_wing,thule_einherjer_Wing,"fighter4, fighter, high",1,,3,12,CLAW,4000,1200,6,INTERCEPTOR,Interceptor,5,3000,,,,,,,,,,,,,6
thule_wartool_wing,thule_wartool_Wing,"fighter4, fighter, high",1,,7,12,CLAW,4000,800,2,ASSAULT,Assault Fighter,25,18000,,,,,,,,,,,,,8
,,,,,,,,,,,,,,,,,,,,,,,,,,,
,,,,,,,,,,,,,,,,,,,,,,,,,,,
,,,,,,,,,,,,,,,,,,,,,,,,,,,
